{
  "extends": "tslint-config-airbnb",
  "rules": {
    "import-name": false,
    "object-shorthand-properties-first": false,
    "variable-name": false
  },
  "linterOptions": {
      "exclude": [
          "node_modules/**"
      ]
  }
}